{
  "group-list": [
    "default",
    "ghost frame"
  ],
  "collision-matrix": [
    [
      true,
      false
    ],
    [
      false,
      true
    ]
  ],
  "excluded-modules": [
    "3D Physics/Builtin"
  ],
  "preview-port": 7456,
  "design-resolution-width": 960,
  "design-resolution-height": 540,
  "fit-width": false,
  "fit-height": false,
  "use-project-simulator-setting": false,
  "simulator-orientation": false,
  "use-customize-simulator": true,
  "simulator-resolution": {
    "width": 960,
    "height": 640
  },
  "clear-simulator-cache": true,
  "facebook": {
    "enable": false,
    "appID": "",
    "live": {
      "enable": false
    },
    "audience": {
      "enable": false
    }
  },
  "start-scene": "16ed44e7-6440-4d94-a03a-bb2500c80170",
  "last-module-event-record-time": 1687238601973
}
