{
  "__type__": "cc.AnimationClip",
  "_name": "effect",
  "_objFlags": 0,
  "_native": "",
  "_duration": 1.6,
  "sample": 5,
  "speed": 1,
  "wrapMode": 2,
  "curveData": {
    "paths": {},
    "comps": {
      "cc.Sprite": {
        "spriteFrame": [
          {
            "frame": 0,
            "value": {
              "__uuid__": "4be0dbb9-a3b6-4c72-9110-723215e6c785"
            }
          },
          {
            "frame": 0.2,
            "value": {
              "__uuid__": "4e0f2704-1afd-43cf-b8d4-bb48af0882fd"
            }
          },
          {
            "frame": 0.4,
            "value": {
              "__uuid__": "30b09d0d-ec55-4b43-9e4e-418fef16a3f4"
            }
          },
          {
            "frame": 0.6,
            "value": {
              "__uuid__": "710150a4-fac2-4744-8e17-d13de03d6db4"
            }
          },
          {
            "frame": 0.8,
            "value": {
              "__uuid__": "ab1c9a69-6fe9-4173-a789-e4497fe004c7"
            }
          },
          {
            "frame": 1,
            "value": {
              "__uuid__": "d0a38dbf-1464-4538-8ffe-7f145afa9929"
            }
          },
          {
            "frame": 1.2,
            "value": {
              "__uuid__": "d45a8be6-557e-4df4-bdfb-b70e6677b86d"
            }
          },
          {
            "frame": 1.4,
            "value": {
              "__uuid__": "c190f663-31a6-4e0c-81aa-0d39bc20f388"
            }
          }
        ]
      }
    }
  },
  "events": []
}