{
  "__type__": "cc.AnimationClip",
  "_name": "green_walk",
  "_objFlags": 0,
  "_native": "",
  "_duration": 0.5666666666666667,
  "sample": 60,
  "speed": 1,
  "wrapMode": 2,
  "curveData": {
    "comps": {
      "cc.Sprite": {
        "spriteFrame": [
          {
            "frame": 0,
            "value": {
              "__uuid__": "3b1883e7-0223-4713-83eb-612e7af37245"
            }
          },
          {
            "frame": 0.05,
            "value": {
              "__uuid__": "96665801-e415-4b7e-8efd-d66693a05de3"
            }
          },
          {
            "frame": 0.1,
            "value": {
              "__uuid__": "81cc6bd3-1bc0-43e3-98ac-492a8a0a3a67"
            }
          },
          {
            "frame": 0.15,
            "value": {
              "__uuid__": "6c791f1b-d229-487b-8d89-67a14b96a409"
            }
          },
          {
            "frame": 0.2,
            "value": {
              "__uuid__": "984a0389-7ddb-4455-86b4-811ee6109455"
            }
          },
          {
            "frame": 0.25,
            "value": {
              "__uuid__": "8ff683db-9f74-46a0-8915-d57e62a81ca1"
            }
          },
          {
            "frame": 0.3,
            "value": {
              "__uuid__": "1384e709-3d21-4d6f-bd93-2deadb34a96d"
            }
          },
          {
            "frame": 0.35,
            "value": {
              "__uuid__": "fce1488e-28a7-44c4-a0a2-4c446c901503"
            }
          },
          {
            "frame": 0.4,
            "value": {
              "__uuid__": "cca1beb1-26c9-4a53-8132-1da03db28543"
            }
          },
          {
            "frame": 0.45,
            "value": {
              "__uuid__": "a8c3ca6e-e752-42fd-a8db-a3a0100d6fad"
            }
          },
          {
            "frame": 0.5,
            "value": {
              "__uuid__": "65ba441c-3f6b-4569-9b4a-dfa9e900006b"
            }
          },
          {
            "frame": 0.55,
            "value": {
              "__uuid__": "f5491a18-86f6-411d-9bfa-f78a1248ea7c"
            }
          }
        ]
      }
    }
  },
  "events": []
}