{
  "__type__": "cc.AnimationClip",
  "_name": "pink_die",
  "_objFlags": 0,
  "_native": "",
  "_duration": 0.6,
  "sample": 60,
  "speed": 1,
  "wrapMode": 1,
  "curveData": {
    "comps": {
      "cc.Sprite": {
        "spriteFrame": [
          {
            "frame": 0,
            "value": {
              "__uuid__": "cf192cb4-1737-44b6-a785-22e120db2597"
            }
          },
          {
            "frame": 0.3333333333333333,
            "value": {
              "__uuid__": "8632a645-77ed-4552-8f75-2ac9a67e5683"
            }
          },
          {
            "frame": 0.4166666666666667,
            "value": {
              "__uuid__": "bcdd069e-5afd-4fe2-a2bf-6bf17d7eec76"
            }
          },
          {
            "frame": 0.5,
            "value": {
              "__uuid__": "a732ee90-f690-4910-8526-927e525ac739"
            }
          },
          {
            "frame": 0.5833333333333334,
            "value": {
              "__uuid__": "49e2553d-d7fa-4067-a265-ce2e56609a8d"
            }
          }
        ]
      }
    }
  },
  "events": []
}