{
  "__type__": "cc.AnimationClip",
  "_name": "yellow_die",
  "_objFlags": 0,
  "_native": "",
  "_duration": 0.6,
  "sample": 60,
  "speed": 1,
  "wrapMode": 1,
  "curveData": {
    "comps": {
      "cc.Sprite": {
        "spriteFrame": [
          {
            "frame": 0,
            "value": {
              "__uuid__": "9e6c96af-2018-4d62-92cd-b65b5a6455b6"
            }
          },
          {
            "frame": 0.3333333333333333,
            "value": {
              "__uuid__": "b0ed8b4e-06c8-45c3-bb0f-b8925eeed9ef"
            }
          },
          {
            "frame": 0.4166666666666667,
            "value": {
              "__uuid__": "e7e2ae73-6ab3-446f-b635-317fdd969355"
            }
          },
          {
            "frame": 0.5,
            "value": {
              "__uuid__": "b858d8f2-b6da-4c4e-a712-4caa9c919f6e"
            }
          },
          {
            "frame": 0.5833333333333334,
            "value": {
              "__uuid__": "f3aa6376-5bdc-4ea0-bad6-0eddac79a075"
            }
          }
        ]
      }
    }
  },
  "events": []
}