{
  "__type__": "cc.AnimationClip",
  "_name": "yellow_walk",
  "_objFlags": 0,
  "_native": "",
  "_duration": 0.5666666666666667,
  "sample": 60,
  "speed": 1,
  "wrapMode": 2,
  "curveData": {
    "comps": {
      "cc.Sprite": {
        "spriteFrame": [
          {
            "frame": 0,
            "value": {
              "__uuid__": "f569d27e-7255-4d94-8345-f127c9a60aaf"
            }
          },
          {
            "frame": 0.05,
            "value": {
              "__uuid__": "6f23590e-4187-4b0a-9d0f-2a0a5681f3ee"
            }
          },
          {
            "frame": 0.1,
            "value": {
              "__uuid__": "2ad43c84-a13c-401f-8929-9e2e5e0e9384"
            }
          },
          {
            "frame": 0.15,
            "value": {
              "__uuid__": "2af5686c-bf64-4ff5-a540-609f6091225f"
            }
          },
          {
            "frame": 0.2,
            "value": {
              "__uuid__": "fb897a0f-1448-4bbb-94e6-ec7b77398d36"
            }
          },
          {
            "frame": 0.25,
            "value": {
              "__uuid__": "7972e77c-a3b9-4edd-9cb3-47157b1b11ff"
            }
          },
          {
            "frame": 0.3,
            "value": {
              "__uuid__": "492942b8-2290-4423-8c7a-f89a833d5793"
            }
          },
          {
            "frame": 0.35,
            "value": {
              "__uuid__": "85070755-0ef3-4ab6-b8b4-f6ad9463db05"
            }
          },
          {
            "frame": 0.4,
            "value": {
              "__uuid__": "cb3ed360-abe8-4fe4-9512-26b6dae0cd6d"
            }
          },
          {
            "frame": 0.45,
            "value": {
              "__uuid__": "860898fe-ac82-4fc5-ae48-4af09f1a696c"
            }
          },
          {
            "frame": 0.5,
            "value": {
              "__uuid__": "c07de595-ec9f-4d16-878e-3359fa2eb6f0"
            }
          },
          {
            "frame": 0.55,
            "value": {
              "__uuid__": "08113d64-811e-4851-93d6-e69066f40dee"
            }
          }
        ]
      }
    }
  },
  "events": []
}